{
    "short_name": "Example",
    "long_name": "Example Version",
    "verses": [
        {
            "text": "In the beginning God created the heaven and the earth.",
            "book": "Genesis",
            "chapter": 1,
            "verse": 1,
            "label": "Creation"
        },
        {
            "text": "And the earth was without form, and void; and darkness [was] upon the face of the deep. And the Spirit of God moved upon the face of the waters.",
            "book": "Genesis",
            "chapter": 1,
            "verse": 2,
            "label": "Narration"
        },
        {
            "text": "And God said, Let there be light: and there was light.",
            "book": "Genesis",
            "chapter": 1,
            "verse": 3,
            "label": "Command"
        },
        {
            "text": "And God saw the light, that [it was] good: and God divided the light from the darkness.",
            "book": "Genesis",
            "chapter": 1,
            "verse": 4,
            "label": "Approval"
        },
        {
            "text": "And God called the light Day, and the darkness he called Night. And the evening and the morning were the first day.",
            "book": "Genesis",
            "chapter": 1,
            "verse": 5,
            "label": "Narration"
        },
        {
            "text": "And God said, Let there be a firmament in the midst of the waters, and let it divide the waters from the waters.",
            "book": "Genesis",
            "chapter": 1,
            "verse": 6,
            "label": "Command"
        },
        {
            "text": "And God made the firmament, and divided the waters which [were] under the firmament from the waters which [were] above the firmament: and it was so.",
            "book": "Genesis",
            "chapter": 1,
            "verse": 7,
            "label": "Narration"
        },
        {
            "text": "And God called the firmament Heaven. And the evening and the morning were the second day.",
            "book": "Genesis",
            "chapter": 1,
            "verse": 8,
            "label": "Narration"
        },
        {
            "text": "And God said, Let the waters under the heaven be gathered together unto one place, and let the dry [land] appear: and it was so.",
            "book": "Genesis",
            "chapter": 1,
            "verse": 9,
            "label": "Command"
        },
        {
            "text": "And God called the dry [land] Earth; and the gathering together of the waters called he Seas: and God saw that [it was] good.",
            "book": "Genesis",
            "chapter": 1,
            "verse": 10,
            "label": "Approval"
        },
        {
            "text": "And God said, Let the earth bring forth grass, the herb yielding seed, [and] the fruit tree yielding fruit after his kind, whose seed [is] in itself, upon the earth: and it was so.",
            "book": "Genesis",
            "chapter": 1,
            "verse": 11,
            "label": "Command"
        }
    ]
}
